uvsq21306230/App.class
uvsq21306230/MoteurRPN.class
uvsq21306230/Operation$3.class
uvsq21306230/Operation$2.class
uvsq21306230/Operation.class
uvsq21306230/Main.class
uvsq21306230/Operation$1.class
uvsq21306230/Operation$4.class
uvsq21306230/ExceptionValue.class
uvsq21306230/SaisieRPN.class
